G04 #@! TF.FileFunction,Copper,L2,Bot,Signal*
%FSLAX46Y46*%
G04 Gerber Fmt 4.6, Leading zero omitted, Abs format (unit mm)*
G04 Created by KiCad (PCBNEW 4.0.6) date 06/12/18 18:52:46*
%MOMM*%
%LPD*%
G01*
G04 APERTURE LIST*
%ADD10C,0.100000*%
%ADD11O,1.016000X1.778000*%
%ADD12C,6.400000*%
%ADD13C,2.200000*%
%ADD14C,2.000000*%
%ADD15C,0.812800*%
%ADD16C,0.304800*%
%ADD17C,0.508000*%
%ADD18C,0.254000*%
G04 APERTURE END LIST*
D10*
D11*
X-33274000Y49834800D03*
X-38354000Y49834800D03*
X-40894000Y49834800D03*
X-43434000Y49834800D03*
X-45974000Y49834800D03*
X-48514000Y49834800D03*
X-51054000Y49834800D03*
X-53594000Y49834800D03*
X-56134000Y49834800D03*
X-58674000Y49834800D03*
X-61214000Y49834800D03*
X-63754000Y49834800D03*
X-66294000Y49834800D03*
X-68834000Y49834800D03*
X-68834000Y14274800D03*
X-66294000Y14274800D03*
X-63754000Y14274800D03*
X-33274000Y14274800D03*
X-61214000Y14274800D03*
X-58674000Y14274800D03*
X-56134000Y14274800D03*
X-53594000Y14274800D03*
X-51054000Y14274800D03*
X-48514000Y14274800D03*
X-45974000Y14274800D03*
X-43434000Y14274800D03*
X-40894000Y14274800D03*
X-38354000Y14274800D03*
X-35814000Y14274800D03*
X-35814000Y49834800D03*
D12*
X-85000000Y54000000D03*
X-15000000Y54000000D03*
D13*
X-13850581Y45907317D03*
X-13850581Y40827317D03*
X-18930581Y40827317D03*
X-18930581Y45907317D03*
D14*
X-16390581Y43367317D03*
D12*
X-85000000Y12000000D03*
X-15000000Y12000000D03*
D15*
X-81915000Y19685000D03*
X-77470000Y28575000D03*
X-88265000Y34925000D03*
X-85090000Y34925000D03*
X-76200000Y37465000D03*
X-66040000Y19050000D03*
X-73025000Y14605000D03*
X-73025000Y19050000D03*
X-73025000Y24765000D03*
X-76428600Y20878800D03*
X-74523600Y9144000D03*
X-11310581Y45907317D03*
X-16390581Y48447317D03*
X-18930581Y48447317D03*
X-21470581Y38287317D03*
X-18930581Y38287317D03*
X-13850581Y48447317D03*
X-21470581Y48447317D03*
X-11310581Y38287317D03*
X-21470581Y45907317D03*
X-11310581Y40827317D03*
X-11310581Y48447317D03*
X-21470581Y43367317D03*
X-21470581Y40827317D03*
X-13850581Y38287317D03*
X-11310581Y43367317D03*
D16*
X-77470000Y28575000D02*
X-77470000Y24130000D01*
X-77470000Y24130000D02*
X-81915000Y19685000D01*
X-78740000Y34925000D02*
X-78740000Y29845000D01*
X-78740000Y29845000D02*
X-77470000Y28575000D01*
X-76200000Y37465000D02*
X-78740000Y34925000D01*
X-78740000Y34925000D02*
X-85090000Y34925000D01*
X-73025000Y19050000D02*
X-66040000Y19050000D01*
X-73025000Y24765000D02*
X-73025000Y19050000D01*
D17*
X-76428600Y20878800D02*
X-75844400Y20294600D01*
X-75844400Y10464800D02*
X-74523600Y9144000D01*
X-75844400Y20294600D02*
X-75844400Y10464800D01*
D16*
X-53594000Y13893800D02*
X-53594000Y14274800D01*
X-18930581Y48447317D02*
X-21470581Y48447317D01*
X-13850581Y48447317D02*
X-16390581Y48447317D01*
X-11310581Y45907317D02*
X-11310581Y48447317D01*
X-18930581Y38287317D02*
X-13850581Y38287317D01*
X-21470581Y45907317D02*
X-21470581Y43367317D01*
X-11310581Y38287317D02*
X-11310581Y40827317D01*
X-21470581Y40827317D02*
X-21470581Y38287317D01*
X-11310581Y43367317D02*
X-11310581Y45907317D01*
D18*
G36*
X-42037000Y31115000D02*
X-42026994Y31065590D01*
X-41998553Y31023965D01*
X-41956159Y30996685D01*
X-41910000Y30988000D01*
X-10710000Y30988000D01*
X-10710000Y7710000D01*
X-89290000Y7710000D01*
X-89290000Y11240518D01*
X-88835664Y11240518D01*
X-88253050Y9830485D01*
X-87175189Y8750741D01*
X-85766175Y8165667D01*
X-84240518Y8164336D01*
X-82830485Y8746950D01*
X-81750741Y9824811D01*
X-81165667Y11233825D01*
X-81164336Y12759482D01*
X-81746950Y14169515D01*
X-82824811Y15249259D01*
X-84233825Y15834333D01*
X-85759482Y15835664D01*
X-87169515Y15253050D01*
X-88249259Y14175189D01*
X-88834333Y12766175D01*
X-88835664Y11240518D01*
X-89290000Y11240518D01*
X-89290000Y20672562D01*
X-77470180Y20672562D01*
X-77311971Y20289665D01*
X-77019276Y19996459D01*
X-76733400Y19877753D01*
X-76733400Y10464800D01*
X-76665729Y10124594D01*
X-76600078Y10026341D01*
X-76473018Y9836182D01*
X-75558549Y8921713D01*
X-75406971Y8554865D01*
X-75114276Y8261659D01*
X-74731656Y8102781D01*
X-74317362Y8102420D01*
X-73934465Y8260629D01*
X-73641259Y8553324D01*
X-73482381Y8935944D01*
X-73482020Y9350238D01*
X-73640229Y9733135D01*
X-73932924Y10026341D01*
X-74301930Y10179566D01*
X-74955400Y10833036D01*
X-74955400Y11240518D01*
X-18835664Y11240518D01*
X-18253050Y9830485D01*
X-17175189Y8750741D01*
X-15766175Y8165667D01*
X-14240518Y8164336D01*
X-12830485Y8746950D01*
X-11750741Y9824811D01*
X-11165667Y11233825D01*
X-11164336Y12759482D01*
X-11746950Y14169515D01*
X-12824811Y15249259D01*
X-14233825Y15834333D01*
X-15759482Y15835664D01*
X-17169515Y15253050D01*
X-18249259Y14175189D01*
X-18834333Y12766175D01*
X-18835664Y11240518D01*
X-74955400Y11240518D01*
X-74955400Y14685657D01*
X-69977000Y14685657D01*
X-69977000Y13863943D01*
X-69889994Y13426536D01*
X-69642223Y13055720D01*
X-69271407Y12807949D01*
X-68834000Y12720943D01*
X-68396593Y12807949D01*
X-68025777Y13055720D01*
X-67778006Y13426536D01*
X-67691000Y13863943D01*
X-67691000Y14147800D01*
X-67437000Y14147800D01*
X-67437000Y13766800D01*
X-67301394Y13339060D01*
X-67012421Y12995774D01*
X-66597134Y12791729D01*
X-66421000Y12917778D01*
X-66421000Y14147800D01*
X-66167000Y14147800D01*
X-66167000Y12917778D01*
X-65990866Y12791729D01*
X-65575579Y12995774D01*
X-65286606Y13339060D01*
X-65151000Y13766800D01*
X-65151000Y14147800D01*
X-66167000Y14147800D01*
X-66421000Y14147800D01*
X-67437000Y14147800D01*
X-67691000Y14147800D01*
X-67691000Y14685657D01*
X-67710323Y14782800D01*
X-67437000Y14782800D01*
X-67437000Y14401800D01*
X-66421000Y14401800D01*
X-66421000Y15631822D01*
X-66167000Y15631822D01*
X-66167000Y14401800D01*
X-65151000Y14401800D01*
X-65151000Y14685657D01*
X-64897000Y14685657D01*
X-64897000Y13863943D01*
X-64809994Y13426536D01*
X-64562223Y13055720D01*
X-64191407Y12807949D01*
X-63754000Y12720943D01*
X-63316593Y12807949D01*
X-62945777Y13055720D01*
X-62698006Y13426536D01*
X-62611000Y13863943D01*
X-62611000Y14685657D01*
X-62357000Y14685657D01*
X-62357000Y13863943D01*
X-62269994Y13426536D01*
X-62022223Y13055720D01*
X-61651407Y12807949D01*
X-61214000Y12720943D01*
X-60776593Y12807949D01*
X-60405777Y13055720D01*
X-60158006Y13426536D01*
X-60071000Y13863943D01*
X-60071000Y14685657D01*
X-59817000Y14685657D01*
X-59817000Y13863943D01*
X-59729994Y13426536D01*
X-59482223Y13055720D01*
X-59111407Y12807949D01*
X-58674000Y12720943D01*
X-58236593Y12807949D01*
X-57865777Y13055720D01*
X-57618006Y13426536D01*
X-57531000Y13863943D01*
X-57531000Y14685657D01*
X-57277000Y14685657D01*
X-57277000Y13863943D01*
X-57189994Y13426536D01*
X-56942223Y13055720D01*
X-56571407Y12807949D01*
X-56134000Y12720943D01*
X-55696593Y12807949D01*
X-55325777Y13055720D01*
X-55078006Y13426536D01*
X-54991000Y13863943D01*
X-54991000Y14685657D01*
X-54737000Y14685657D01*
X-54737000Y13863943D01*
X-54649994Y13426536D01*
X-54402223Y13055720D01*
X-54031407Y12807949D01*
X-53594000Y12720943D01*
X-53156593Y12807949D01*
X-52785777Y13055720D01*
X-52538006Y13426536D01*
X-52451000Y13863943D01*
X-52451000Y14685657D01*
X-52197000Y14685657D01*
X-52197000Y13863943D01*
X-52109994Y13426536D01*
X-51862223Y13055720D01*
X-51491407Y12807949D01*
X-51054000Y12720943D01*
X-50616593Y12807949D01*
X-50245777Y13055720D01*
X-49998006Y13426536D01*
X-49911000Y13863943D01*
X-49911000Y14685657D01*
X-49657000Y14685657D01*
X-49657000Y13863943D01*
X-49569994Y13426536D01*
X-49322223Y13055720D01*
X-48951407Y12807949D01*
X-48514000Y12720943D01*
X-48076593Y12807949D01*
X-47705777Y13055720D01*
X-47458006Y13426536D01*
X-47371000Y13863943D01*
X-47371000Y14685657D01*
X-47117000Y14685657D01*
X-47117000Y13863943D01*
X-47029994Y13426536D01*
X-46782223Y13055720D01*
X-46411407Y12807949D01*
X-45974000Y12720943D01*
X-45536593Y12807949D01*
X-45165777Y13055720D01*
X-44918006Y13426536D01*
X-44831000Y13863943D01*
X-44831000Y14147800D01*
X-44577000Y14147800D01*
X-44577000Y13766800D01*
X-44441394Y13339060D01*
X-44152421Y12995774D01*
X-43737134Y12791729D01*
X-43561000Y12917778D01*
X-43561000Y14147800D01*
X-43307000Y14147800D01*
X-43307000Y12917778D01*
X-43130866Y12791729D01*
X-42715579Y12995774D01*
X-42426606Y13339060D01*
X-42291000Y13766800D01*
X-42291000Y14147800D01*
X-43307000Y14147800D01*
X-43561000Y14147800D01*
X-44577000Y14147800D01*
X-44831000Y14147800D01*
X-44831000Y14685657D01*
X-44850323Y14782800D01*
X-44577000Y14782800D01*
X-44577000Y14401800D01*
X-43561000Y14401800D01*
X-43561000Y15631822D01*
X-43307000Y15631822D01*
X-43307000Y14401800D01*
X-42291000Y14401800D01*
X-42291000Y14685657D01*
X-42037000Y14685657D01*
X-42037000Y13863943D01*
X-41949994Y13426536D01*
X-41702223Y13055720D01*
X-41331407Y12807949D01*
X-40894000Y12720943D01*
X-40456593Y12807949D01*
X-40085777Y13055720D01*
X-39838006Y13426536D01*
X-39751000Y13863943D01*
X-39751000Y14685657D01*
X-39497000Y14685657D01*
X-39497000Y13863943D01*
X-39409994Y13426536D01*
X-39162223Y13055720D01*
X-38791407Y12807949D01*
X-38354000Y12720943D01*
X-37916593Y12807949D01*
X-37545777Y13055720D01*
X-37298006Y13426536D01*
X-37211000Y13863943D01*
X-37211000Y14685657D01*
X-36957000Y14685657D01*
X-36957000Y13863943D01*
X-36869994Y13426536D01*
X-36622223Y13055720D01*
X-36251407Y12807949D01*
X-35814000Y12720943D01*
X-35376593Y12807949D01*
X-35005777Y13055720D01*
X-34758006Y13426536D01*
X-34671000Y13863943D01*
X-34671000Y14685657D01*
X-34417000Y14685657D01*
X-34417000Y13863943D01*
X-34329994Y13426536D01*
X-34082223Y13055720D01*
X-33711407Y12807949D01*
X-33274000Y12720943D01*
X-32836593Y12807949D01*
X-32465777Y13055720D01*
X-32218006Y13426536D01*
X-32131000Y13863943D01*
X-32131000Y14685657D01*
X-32218006Y15123064D01*
X-32465777Y15493880D01*
X-32836593Y15741651D01*
X-33274000Y15828657D01*
X-33711407Y15741651D01*
X-34082223Y15493880D01*
X-34329994Y15123064D01*
X-34417000Y14685657D01*
X-34671000Y14685657D01*
X-34758006Y15123064D01*
X-35005777Y15493880D01*
X-35376593Y15741651D01*
X-35814000Y15828657D01*
X-36251407Y15741651D01*
X-36622223Y15493880D01*
X-36869994Y15123064D01*
X-36957000Y14685657D01*
X-37211000Y14685657D01*
X-37298006Y15123064D01*
X-37545777Y15493880D01*
X-37916593Y15741651D01*
X-38354000Y15828657D01*
X-38791407Y15741651D01*
X-39162223Y15493880D01*
X-39409994Y15123064D01*
X-39497000Y14685657D01*
X-39751000Y14685657D01*
X-39838006Y15123064D01*
X-40085777Y15493880D01*
X-40456593Y15741651D01*
X-40894000Y15828657D01*
X-41331407Y15741651D01*
X-41702223Y15493880D01*
X-41949994Y15123064D01*
X-42037000Y14685657D01*
X-42291000Y14685657D01*
X-42291000Y14782800D01*
X-42426606Y15210540D01*
X-42715579Y15553826D01*
X-43130866Y15757871D01*
X-43307000Y15631822D01*
X-43561000Y15631822D01*
X-43737134Y15757871D01*
X-44152421Y15553826D01*
X-44441394Y15210540D01*
X-44577000Y14782800D01*
X-44850323Y14782800D01*
X-44918006Y15123064D01*
X-45165777Y15493880D01*
X-45536593Y15741651D01*
X-45974000Y15828657D01*
X-46411407Y15741651D01*
X-46782223Y15493880D01*
X-47029994Y15123064D01*
X-47117000Y14685657D01*
X-47371000Y14685657D01*
X-47458006Y15123064D01*
X-47705777Y15493880D01*
X-48076593Y15741651D01*
X-48514000Y15828657D01*
X-48951407Y15741651D01*
X-49322223Y15493880D01*
X-49569994Y15123064D01*
X-49657000Y14685657D01*
X-49911000Y14685657D01*
X-49998006Y15123064D01*
X-50245777Y15493880D01*
X-50616593Y15741651D01*
X-51054000Y15828657D01*
X-51491407Y15741651D01*
X-51862223Y15493880D01*
X-52109994Y15123064D01*
X-52197000Y14685657D01*
X-52451000Y14685657D01*
X-52538006Y15123064D01*
X-52785777Y15493880D01*
X-53156593Y15741651D01*
X-53594000Y15828657D01*
X-54031407Y15741651D01*
X-54402223Y15493880D01*
X-54649994Y15123064D01*
X-54737000Y14685657D01*
X-54991000Y14685657D01*
X-55078006Y15123064D01*
X-55325777Y15493880D01*
X-55696593Y15741651D01*
X-56134000Y15828657D01*
X-56571407Y15741651D01*
X-56942223Y15493880D01*
X-57189994Y15123064D01*
X-57277000Y14685657D01*
X-57531000Y14685657D01*
X-57618006Y15123064D01*
X-57865777Y15493880D01*
X-58236593Y15741651D01*
X-58674000Y15828657D01*
X-59111407Y15741651D01*
X-59482223Y15493880D01*
X-59729994Y15123064D01*
X-59817000Y14685657D01*
X-60071000Y14685657D01*
X-60158006Y15123064D01*
X-60405777Y15493880D01*
X-60776593Y15741651D01*
X-61214000Y15828657D01*
X-61651407Y15741651D01*
X-62022223Y15493880D01*
X-62269994Y15123064D01*
X-62357000Y14685657D01*
X-62611000Y14685657D01*
X-62698006Y15123064D01*
X-62945777Y15493880D01*
X-63316593Y15741651D01*
X-63754000Y15828657D01*
X-64191407Y15741651D01*
X-64562223Y15493880D01*
X-64809994Y15123064D01*
X-64897000Y14685657D01*
X-65151000Y14685657D01*
X-65151000Y14782800D01*
X-65286606Y15210540D01*
X-65575579Y15553826D01*
X-65990866Y15757871D01*
X-66167000Y15631822D01*
X-66421000Y15631822D01*
X-66597134Y15757871D01*
X-67012421Y15553826D01*
X-67301394Y15210540D01*
X-67437000Y14782800D01*
X-67710323Y14782800D01*
X-67778006Y15123064D01*
X-68025777Y15493880D01*
X-68396593Y15741651D01*
X-68834000Y15828657D01*
X-69271407Y15741651D01*
X-69642223Y15493880D01*
X-69889994Y15123064D01*
X-69977000Y14685657D01*
X-74955400Y14685657D01*
X-74955400Y20294600D01*
X-75003933Y20538595D01*
X-75023070Y20634805D01*
X-75215782Y20923218D01*
X-75393651Y21101087D01*
X-75545229Y21467935D01*
X-75837924Y21761141D01*
X-76220544Y21920019D01*
X-76634838Y21920380D01*
X-77017735Y21762171D01*
X-77310941Y21469476D01*
X-77469819Y21086856D01*
X-77470180Y20672562D01*
X-89290000Y20672562D01*
X-89290000Y53240518D01*
X-88835664Y53240518D01*
X-88253050Y51830485D01*
X-87175189Y50750741D01*
X-85766175Y50165667D01*
X-84240518Y50164336D01*
X-84043707Y50245657D01*
X-69977000Y50245657D01*
X-69977000Y49423943D01*
X-69889994Y48986536D01*
X-69642223Y48615720D01*
X-69271407Y48367949D01*
X-68834000Y48280943D01*
X-68396593Y48367949D01*
X-68025777Y48615720D01*
X-67778006Y48986536D01*
X-67691000Y49423943D01*
X-67691000Y50245657D01*
X-67437000Y50245657D01*
X-67437000Y49423943D01*
X-67349994Y48986536D01*
X-67102223Y48615720D01*
X-66731407Y48367949D01*
X-66294000Y48280943D01*
X-65856593Y48367949D01*
X-65485777Y48615720D01*
X-65238006Y48986536D01*
X-65151000Y49423943D01*
X-65151000Y50245657D01*
X-64897000Y50245657D01*
X-64897000Y49423943D01*
X-64809994Y48986536D01*
X-64562223Y48615720D01*
X-64191407Y48367949D01*
X-63754000Y48280943D01*
X-63316593Y48367949D01*
X-62945777Y48615720D01*
X-62698006Y48986536D01*
X-62611000Y49423943D01*
X-62611000Y50245657D01*
X-62357000Y50245657D01*
X-62357000Y49423943D01*
X-62269994Y48986536D01*
X-62022223Y48615720D01*
X-61651407Y48367949D01*
X-61214000Y48280943D01*
X-60776593Y48367949D01*
X-60405777Y48615720D01*
X-60158006Y48986536D01*
X-60071000Y49423943D01*
X-60071000Y50245657D01*
X-59817000Y50245657D01*
X-59817000Y49423943D01*
X-59729994Y48986536D01*
X-59482223Y48615720D01*
X-59111407Y48367949D01*
X-58674000Y48280943D01*
X-58236593Y48367949D01*
X-57865777Y48615720D01*
X-57618006Y48986536D01*
X-57531000Y49423943D01*
X-57531000Y50245657D01*
X-57277000Y50245657D01*
X-57277000Y49423943D01*
X-57189994Y48986536D01*
X-56942223Y48615720D01*
X-56571407Y48367949D01*
X-56134000Y48280943D01*
X-55696593Y48367949D01*
X-55325777Y48615720D01*
X-55078006Y48986536D01*
X-54991000Y49423943D01*
X-54991000Y50245657D01*
X-54737000Y50245657D01*
X-54737000Y49423943D01*
X-54649994Y48986536D01*
X-54402223Y48615720D01*
X-54031407Y48367949D01*
X-53594000Y48280943D01*
X-53156593Y48367949D01*
X-52785777Y48615720D01*
X-52538006Y48986536D01*
X-52451000Y49423943D01*
X-52451000Y50245657D01*
X-52197000Y50245657D01*
X-52197000Y49423943D01*
X-52109994Y48986536D01*
X-51862223Y48615720D01*
X-51491407Y48367949D01*
X-51054000Y48280943D01*
X-50616593Y48367949D01*
X-50245777Y48615720D01*
X-49998006Y48986536D01*
X-49911000Y49423943D01*
X-49911000Y50245657D01*
X-49657000Y50245657D01*
X-49657000Y49423943D01*
X-49569994Y48986536D01*
X-49322223Y48615720D01*
X-48951407Y48367949D01*
X-48514000Y48280943D01*
X-48076593Y48367949D01*
X-47705777Y48615720D01*
X-47458006Y48986536D01*
X-47371000Y49423943D01*
X-47371000Y50245657D01*
X-47117000Y50245657D01*
X-47117000Y49423943D01*
X-47029994Y48986536D01*
X-46782223Y48615720D01*
X-46411407Y48367949D01*
X-45974000Y48280943D01*
X-45536593Y48367949D01*
X-45165777Y48615720D01*
X-44918006Y48986536D01*
X-44831000Y49423943D01*
X-44831000Y50245657D01*
X-44577000Y50245657D01*
X-44577000Y49423943D01*
X-44489994Y48986536D01*
X-44242223Y48615720D01*
X-43871407Y48367949D01*
X-43434000Y48280943D01*
X-42996593Y48367949D01*
X-42625777Y48615720D01*
X-42378006Y48986536D01*
X-42291000Y49423943D01*
X-42291000Y50245657D01*
X-42378006Y50683064D01*
X-42625777Y51053880D01*
X-42996593Y51301651D01*
X-43434000Y51388657D01*
X-43871407Y51301651D01*
X-44242223Y51053880D01*
X-44489994Y50683064D01*
X-44577000Y50245657D01*
X-44831000Y50245657D01*
X-44918006Y50683064D01*
X-45165777Y51053880D01*
X-45536593Y51301651D01*
X-45974000Y51388657D01*
X-46411407Y51301651D01*
X-46782223Y51053880D01*
X-47029994Y50683064D01*
X-47117000Y50245657D01*
X-47371000Y50245657D01*
X-47458006Y50683064D01*
X-47705777Y51053880D01*
X-48076593Y51301651D01*
X-48514000Y51388657D01*
X-48951407Y51301651D01*
X-49322223Y51053880D01*
X-49569994Y50683064D01*
X-49657000Y50245657D01*
X-49911000Y50245657D01*
X-49998006Y50683064D01*
X-50245777Y51053880D01*
X-50616593Y51301651D01*
X-51054000Y51388657D01*
X-51491407Y51301651D01*
X-51862223Y51053880D01*
X-52109994Y50683064D01*
X-52197000Y50245657D01*
X-52451000Y50245657D01*
X-52538006Y50683064D01*
X-52785777Y51053880D01*
X-53156593Y51301651D01*
X-53594000Y51388657D01*
X-54031407Y51301651D01*
X-54402223Y51053880D01*
X-54649994Y50683064D01*
X-54737000Y50245657D01*
X-54991000Y50245657D01*
X-55078006Y50683064D01*
X-55325777Y51053880D01*
X-55696593Y51301651D01*
X-56134000Y51388657D01*
X-56571407Y51301651D01*
X-56942223Y51053880D01*
X-57189994Y50683064D01*
X-57277000Y50245657D01*
X-57531000Y50245657D01*
X-57618006Y50683064D01*
X-57865777Y51053880D01*
X-58236593Y51301651D01*
X-58674000Y51388657D01*
X-59111407Y51301651D01*
X-59482223Y51053880D01*
X-59729994Y50683064D01*
X-59817000Y50245657D01*
X-60071000Y50245657D01*
X-60158006Y50683064D01*
X-60405777Y51053880D01*
X-60776593Y51301651D01*
X-61214000Y51388657D01*
X-61651407Y51301651D01*
X-62022223Y51053880D01*
X-62269994Y50683064D01*
X-62357000Y50245657D01*
X-62611000Y50245657D01*
X-62698006Y50683064D01*
X-62945777Y51053880D01*
X-63316593Y51301651D01*
X-63754000Y51388657D01*
X-64191407Y51301651D01*
X-64562223Y51053880D01*
X-64809994Y50683064D01*
X-64897000Y50245657D01*
X-65151000Y50245657D01*
X-65238006Y50683064D01*
X-65485777Y51053880D01*
X-65856593Y51301651D01*
X-66294000Y51388657D01*
X-66731407Y51301651D01*
X-67102223Y51053880D01*
X-67349994Y50683064D01*
X-67437000Y50245657D01*
X-67691000Y50245657D01*
X-67778006Y50683064D01*
X-68025777Y51053880D01*
X-68396593Y51301651D01*
X-68834000Y51388657D01*
X-69271407Y51301651D01*
X-69642223Y51053880D01*
X-69889994Y50683064D01*
X-69977000Y50245657D01*
X-84043707Y50245657D01*
X-82830485Y50746950D01*
X-81750741Y51824811D01*
X-81165667Y53233825D01*
X-81164336Y54759482D01*
X-81746950Y56169515D01*
X-82824811Y57249259D01*
X-84233825Y57834333D01*
X-85759482Y57835664D01*
X-87169515Y57253050D01*
X-88249259Y56175189D01*
X-88834333Y54766175D01*
X-88835664Y53240518D01*
X-89290000Y53240518D01*
X-89290000Y58290000D01*
X-42037000Y58290000D01*
X-42037000Y31115000D01*
X-42037000Y31115000D01*
G37*
X-42037000Y31115000D02*
X-42026994Y31065590D01*
X-41998553Y31023965D01*
X-41956159Y30996685D01*
X-41910000Y30988000D01*
X-10710000Y30988000D01*
X-10710000Y7710000D01*
X-89290000Y7710000D01*
X-89290000Y11240518D01*
X-88835664Y11240518D01*
X-88253050Y9830485D01*
X-87175189Y8750741D01*
X-85766175Y8165667D01*
X-84240518Y8164336D01*
X-82830485Y8746950D01*
X-81750741Y9824811D01*
X-81165667Y11233825D01*
X-81164336Y12759482D01*
X-81746950Y14169515D01*
X-82824811Y15249259D01*
X-84233825Y15834333D01*
X-85759482Y15835664D01*
X-87169515Y15253050D01*
X-88249259Y14175189D01*
X-88834333Y12766175D01*
X-88835664Y11240518D01*
X-89290000Y11240518D01*
X-89290000Y20672562D01*
X-77470180Y20672562D01*
X-77311971Y20289665D01*
X-77019276Y19996459D01*
X-76733400Y19877753D01*
X-76733400Y10464800D01*
X-76665729Y10124594D01*
X-76600078Y10026341D01*
X-76473018Y9836182D01*
X-75558549Y8921713D01*
X-75406971Y8554865D01*
X-75114276Y8261659D01*
X-74731656Y8102781D01*
X-74317362Y8102420D01*
X-73934465Y8260629D01*
X-73641259Y8553324D01*
X-73482381Y8935944D01*
X-73482020Y9350238D01*
X-73640229Y9733135D01*
X-73932924Y10026341D01*
X-74301930Y10179566D01*
X-74955400Y10833036D01*
X-74955400Y11240518D01*
X-18835664Y11240518D01*
X-18253050Y9830485D01*
X-17175189Y8750741D01*
X-15766175Y8165667D01*
X-14240518Y8164336D01*
X-12830485Y8746950D01*
X-11750741Y9824811D01*
X-11165667Y11233825D01*
X-11164336Y12759482D01*
X-11746950Y14169515D01*
X-12824811Y15249259D01*
X-14233825Y15834333D01*
X-15759482Y15835664D01*
X-17169515Y15253050D01*
X-18249259Y14175189D01*
X-18834333Y12766175D01*
X-18835664Y11240518D01*
X-74955400Y11240518D01*
X-74955400Y14685657D01*
X-69977000Y14685657D01*
X-69977000Y13863943D01*
X-69889994Y13426536D01*
X-69642223Y13055720D01*
X-69271407Y12807949D01*
X-68834000Y12720943D01*
X-68396593Y12807949D01*
X-68025777Y13055720D01*
X-67778006Y13426536D01*
X-67691000Y13863943D01*
X-67691000Y14147800D01*
X-67437000Y14147800D01*
X-67437000Y13766800D01*
X-67301394Y13339060D01*
X-67012421Y12995774D01*
X-66597134Y12791729D01*
X-66421000Y12917778D01*
X-66421000Y14147800D01*
X-66167000Y14147800D01*
X-66167000Y12917778D01*
X-65990866Y12791729D01*
X-65575579Y12995774D01*
X-65286606Y13339060D01*
X-65151000Y13766800D01*
X-65151000Y14147800D01*
X-66167000Y14147800D01*
X-66421000Y14147800D01*
X-67437000Y14147800D01*
X-67691000Y14147800D01*
X-67691000Y14685657D01*
X-67710323Y14782800D01*
X-67437000Y14782800D01*
X-67437000Y14401800D01*
X-66421000Y14401800D01*
X-66421000Y15631822D01*
X-66167000Y15631822D01*
X-66167000Y14401800D01*
X-65151000Y14401800D01*
X-65151000Y14685657D01*
X-64897000Y14685657D01*
X-64897000Y13863943D01*
X-64809994Y13426536D01*
X-64562223Y13055720D01*
X-64191407Y12807949D01*
X-63754000Y12720943D01*
X-63316593Y12807949D01*
X-62945777Y13055720D01*
X-62698006Y13426536D01*
X-62611000Y13863943D01*
X-62611000Y14685657D01*
X-62357000Y14685657D01*
X-62357000Y13863943D01*
X-62269994Y13426536D01*
X-62022223Y13055720D01*
X-61651407Y12807949D01*
X-61214000Y12720943D01*
X-60776593Y12807949D01*
X-60405777Y13055720D01*
X-60158006Y13426536D01*
X-60071000Y13863943D01*
X-60071000Y14685657D01*
X-59817000Y14685657D01*
X-59817000Y13863943D01*
X-59729994Y13426536D01*
X-59482223Y13055720D01*
X-59111407Y12807949D01*
X-58674000Y12720943D01*
X-58236593Y12807949D01*
X-57865777Y13055720D01*
X-57618006Y13426536D01*
X-57531000Y13863943D01*
X-57531000Y14685657D01*
X-57277000Y14685657D01*
X-57277000Y13863943D01*
X-57189994Y13426536D01*
X-56942223Y13055720D01*
X-56571407Y12807949D01*
X-56134000Y12720943D01*
X-55696593Y12807949D01*
X-55325777Y13055720D01*
X-55078006Y13426536D01*
X-54991000Y13863943D01*
X-54991000Y14685657D01*
X-54737000Y14685657D01*
X-54737000Y13863943D01*
X-54649994Y13426536D01*
X-54402223Y13055720D01*
X-54031407Y12807949D01*
X-53594000Y12720943D01*
X-53156593Y12807949D01*
X-52785777Y13055720D01*
X-52538006Y13426536D01*
X-52451000Y13863943D01*
X-52451000Y14685657D01*
X-52197000Y14685657D01*
X-52197000Y13863943D01*
X-52109994Y13426536D01*
X-51862223Y13055720D01*
X-51491407Y12807949D01*
X-51054000Y12720943D01*
X-50616593Y12807949D01*
X-50245777Y13055720D01*
X-49998006Y13426536D01*
X-49911000Y13863943D01*
X-49911000Y14685657D01*
X-49657000Y14685657D01*
X-49657000Y13863943D01*
X-49569994Y13426536D01*
X-49322223Y13055720D01*
X-48951407Y12807949D01*
X-48514000Y12720943D01*
X-48076593Y12807949D01*
X-47705777Y13055720D01*
X-47458006Y13426536D01*
X-47371000Y13863943D01*
X-47371000Y14685657D01*
X-47117000Y14685657D01*
X-47117000Y13863943D01*
X-47029994Y13426536D01*
X-46782223Y13055720D01*
X-46411407Y12807949D01*
X-45974000Y12720943D01*
X-45536593Y12807949D01*
X-45165777Y13055720D01*
X-44918006Y13426536D01*
X-44831000Y13863943D01*
X-44831000Y14147800D01*
X-44577000Y14147800D01*
X-44577000Y13766800D01*
X-44441394Y13339060D01*
X-44152421Y12995774D01*
X-43737134Y12791729D01*
X-43561000Y12917778D01*
X-43561000Y14147800D01*
X-43307000Y14147800D01*
X-43307000Y12917778D01*
X-43130866Y12791729D01*
X-42715579Y12995774D01*
X-42426606Y13339060D01*
X-42291000Y13766800D01*
X-42291000Y14147800D01*
X-43307000Y14147800D01*
X-43561000Y14147800D01*
X-44577000Y14147800D01*
X-44831000Y14147800D01*
X-44831000Y14685657D01*
X-44850323Y14782800D01*
X-44577000Y14782800D01*
X-44577000Y14401800D01*
X-43561000Y14401800D01*
X-43561000Y15631822D01*
X-43307000Y15631822D01*
X-43307000Y14401800D01*
X-42291000Y14401800D01*
X-42291000Y14685657D01*
X-42037000Y14685657D01*
X-42037000Y13863943D01*
X-41949994Y13426536D01*
X-41702223Y13055720D01*
X-41331407Y12807949D01*
X-40894000Y12720943D01*
X-40456593Y12807949D01*
X-40085777Y13055720D01*
X-39838006Y13426536D01*
X-39751000Y13863943D01*
X-39751000Y14685657D01*
X-39497000Y14685657D01*
X-39497000Y13863943D01*
X-39409994Y13426536D01*
X-39162223Y13055720D01*
X-38791407Y12807949D01*
X-38354000Y12720943D01*
X-37916593Y12807949D01*
X-37545777Y13055720D01*
X-37298006Y13426536D01*
X-37211000Y13863943D01*
X-37211000Y14685657D01*
X-36957000Y14685657D01*
X-36957000Y13863943D01*
X-36869994Y13426536D01*
X-36622223Y13055720D01*
X-36251407Y12807949D01*
X-35814000Y12720943D01*
X-35376593Y12807949D01*
X-35005777Y13055720D01*
X-34758006Y13426536D01*
X-34671000Y13863943D01*
X-34671000Y14685657D01*
X-34417000Y14685657D01*
X-34417000Y13863943D01*
X-34329994Y13426536D01*
X-34082223Y13055720D01*
X-33711407Y12807949D01*
X-33274000Y12720943D01*
X-32836593Y12807949D01*
X-32465777Y13055720D01*
X-32218006Y13426536D01*
X-32131000Y13863943D01*
X-32131000Y14685657D01*
X-32218006Y15123064D01*
X-32465777Y15493880D01*
X-32836593Y15741651D01*
X-33274000Y15828657D01*
X-33711407Y15741651D01*
X-34082223Y15493880D01*
X-34329994Y15123064D01*
X-34417000Y14685657D01*
X-34671000Y14685657D01*
X-34758006Y15123064D01*
X-35005777Y15493880D01*
X-35376593Y15741651D01*
X-35814000Y15828657D01*
X-36251407Y15741651D01*
X-36622223Y15493880D01*
X-36869994Y15123064D01*
X-36957000Y14685657D01*
X-37211000Y14685657D01*
X-37298006Y15123064D01*
X-37545777Y15493880D01*
X-37916593Y15741651D01*
X-38354000Y15828657D01*
X-38791407Y15741651D01*
X-39162223Y15493880D01*
X-39409994Y15123064D01*
X-39497000Y14685657D01*
X-39751000Y14685657D01*
X-39838006Y15123064D01*
X-40085777Y15493880D01*
X-40456593Y15741651D01*
X-40894000Y15828657D01*
X-41331407Y15741651D01*
X-41702223Y15493880D01*
X-41949994Y15123064D01*
X-42037000Y14685657D01*
X-42291000Y14685657D01*
X-42291000Y14782800D01*
X-42426606Y15210540D01*
X-42715579Y15553826D01*
X-43130866Y15757871D01*
X-43307000Y15631822D01*
X-43561000Y15631822D01*
X-43737134Y15757871D01*
X-44152421Y15553826D01*
X-44441394Y15210540D01*
X-44577000Y14782800D01*
X-44850323Y14782800D01*
X-44918006Y15123064D01*
X-45165777Y15493880D01*
X-45536593Y15741651D01*
X-45974000Y15828657D01*
X-46411407Y15741651D01*
X-46782223Y15493880D01*
X-47029994Y15123064D01*
X-47117000Y14685657D01*
X-47371000Y14685657D01*
X-47458006Y15123064D01*
X-47705777Y15493880D01*
X-48076593Y15741651D01*
X-48514000Y15828657D01*
X-48951407Y15741651D01*
X-49322223Y15493880D01*
X-49569994Y15123064D01*
X-49657000Y14685657D01*
X-49911000Y14685657D01*
X-49998006Y15123064D01*
X-50245777Y15493880D01*
X-50616593Y15741651D01*
X-51054000Y15828657D01*
X-51491407Y15741651D01*
X-51862223Y15493880D01*
X-52109994Y15123064D01*
X-52197000Y14685657D01*
X-52451000Y14685657D01*
X-52538006Y15123064D01*
X-52785777Y15493880D01*
X-53156593Y15741651D01*
X-53594000Y15828657D01*
X-54031407Y15741651D01*
X-54402223Y15493880D01*
X-54649994Y15123064D01*
X-54737000Y14685657D01*
X-54991000Y14685657D01*
X-55078006Y15123064D01*
X-55325777Y15493880D01*
X-55696593Y15741651D01*
X-56134000Y15828657D01*
X-56571407Y15741651D01*
X-56942223Y15493880D01*
X-57189994Y15123064D01*
X-57277000Y14685657D01*
X-57531000Y14685657D01*
X-57618006Y15123064D01*
X-57865777Y15493880D01*
X-58236593Y15741651D01*
X-58674000Y15828657D01*
X-59111407Y15741651D01*
X-59482223Y15493880D01*
X-59729994Y15123064D01*
X-59817000Y14685657D01*
X-60071000Y14685657D01*
X-60158006Y15123064D01*
X-60405777Y15493880D01*
X-60776593Y15741651D01*
X-61214000Y15828657D01*
X-61651407Y15741651D01*
X-62022223Y15493880D01*
X-62269994Y15123064D01*
X-62357000Y14685657D01*
X-62611000Y14685657D01*
X-62698006Y15123064D01*
X-62945777Y15493880D01*
X-63316593Y15741651D01*
X-63754000Y15828657D01*
X-64191407Y15741651D01*
X-64562223Y15493880D01*
X-64809994Y15123064D01*
X-64897000Y14685657D01*
X-65151000Y14685657D01*
X-65151000Y14782800D01*
X-65286606Y15210540D01*
X-65575579Y15553826D01*
X-65990866Y15757871D01*
X-66167000Y15631822D01*
X-66421000Y15631822D01*
X-66597134Y15757871D01*
X-67012421Y15553826D01*
X-67301394Y15210540D01*
X-67437000Y14782800D01*
X-67710323Y14782800D01*
X-67778006Y15123064D01*
X-68025777Y15493880D01*
X-68396593Y15741651D01*
X-68834000Y15828657D01*
X-69271407Y15741651D01*
X-69642223Y15493880D01*
X-69889994Y15123064D01*
X-69977000Y14685657D01*
X-74955400Y14685657D01*
X-74955400Y20294600D01*
X-75003933Y20538595D01*
X-75023070Y20634805D01*
X-75215782Y20923218D01*
X-75393651Y21101087D01*
X-75545229Y21467935D01*
X-75837924Y21761141D01*
X-76220544Y21920019D01*
X-76634838Y21920380D01*
X-77017735Y21762171D01*
X-77310941Y21469476D01*
X-77469819Y21086856D01*
X-77470180Y20672562D01*
X-89290000Y20672562D01*
X-89290000Y53240518D01*
X-88835664Y53240518D01*
X-88253050Y51830485D01*
X-87175189Y50750741D01*
X-85766175Y50165667D01*
X-84240518Y50164336D01*
X-84043707Y50245657D01*
X-69977000Y50245657D01*
X-69977000Y49423943D01*
X-69889994Y48986536D01*
X-69642223Y48615720D01*
X-69271407Y48367949D01*
X-68834000Y48280943D01*
X-68396593Y48367949D01*
X-68025777Y48615720D01*
X-67778006Y48986536D01*
X-67691000Y49423943D01*
X-67691000Y50245657D01*
X-67437000Y50245657D01*
X-67437000Y49423943D01*
X-67349994Y48986536D01*
X-67102223Y48615720D01*
X-66731407Y48367949D01*
X-66294000Y48280943D01*
X-65856593Y48367949D01*
X-65485777Y48615720D01*
X-65238006Y48986536D01*
X-65151000Y49423943D01*
X-65151000Y50245657D01*
X-64897000Y50245657D01*
X-64897000Y49423943D01*
X-64809994Y48986536D01*
X-64562223Y48615720D01*
X-64191407Y48367949D01*
X-63754000Y48280943D01*
X-63316593Y48367949D01*
X-62945777Y48615720D01*
X-62698006Y48986536D01*
X-62611000Y49423943D01*
X-62611000Y50245657D01*
X-62357000Y50245657D01*
X-62357000Y49423943D01*
X-62269994Y48986536D01*
X-62022223Y48615720D01*
X-61651407Y48367949D01*
X-61214000Y48280943D01*
X-60776593Y48367949D01*
X-60405777Y48615720D01*
X-60158006Y48986536D01*
X-60071000Y49423943D01*
X-60071000Y50245657D01*
X-59817000Y50245657D01*
X-59817000Y49423943D01*
X-59729994Y48986536D01*
X-59482223Y48615720D01*
X-59111407Y48367949D01*
X-58674000Y48280943D01*
X-58236593Y48367949D01*
X-57865777Y48615720D01*
X-57618006Y48986536D01*
X-57531000Y49423943D01*
X-57531000Y50245657D01*
X-57277000Y50245657D01*
X-57277000Y49423943D01*
X-57189994Y48986536D01*
X-56942223Y48615720D01*
X-56571407Y48367949D01*
X-56134000Y48280943D01*
X-55696593Y48367949D01*
X-55325777Y48615720D01*
X-55078006Y48986536D01*
X-54991000Y49423943D01*
X-54991000Y50245657D01*
X-54737000Y50245657D01*
X-54737000Y49423943D01*
X-54649994Y48986536D01*
X-54402223Y48615720D01*
X-54031407Y48367949D01*
X-53594000Y48280943D01*
X-53156593Y48367949D01*
X-52785777Y48615720D01*
X-52538006Y48986536D01*
X-52451000Y49423943D01*
X-52451000Y50245657D01*
X-52197000Y50245657D01*
X-52197000Y49423943D01*
X-52109994Y48986536D01*
X-51862223Y48615720D01*
X-51491407Y48367949D01*
X-51054000Y48280943D01*
X-50616593Y48367949D01*
X-50245777Y48615720D01*
X-49998006Y48986536D01*
X-49911000Y49423943D01*
X-49911000Y50245657D01*
X-49657000Y50245657D01*
X-49657000Y49423943D01*
X-49569994Y48986536D01*
X-49322223Y48615720D01*
X-48951407Y48367949D01*
X-48514000Y48280943D01*
X-48076593Y48367949D01*
X-47705777Y48615720D01*
X-47458006Y48986536D01*
X-47371000Y49423943D01*
X-47371000Y50245657D01*
X-47117000Y50245657D01*
X-47117000Y49423943D01*
X-47029994Y48986536D01*
X-46782223Y48615720D01*
X-46411407Y48367949D01*
X-45974000Y48280943D01*
X-45536593Y48367949D01*
X-45165777Y48615720D01*
X-44918006Y48986536D01*
X-44831000Y49423943D01*
X-44831000Y50245657D01*
X-44577000Y50245657D01*
X-44577000Y49423943D01*
X-44489994Y48986536D01*
X-44242223Y48615720D01*
X-43871407Y48367949D01*
X-43434000Y48280943D01*
X-42996593Y48367949D01*
X-42625777Y48615720D01*
X-42378006Y48986536D01*
X-42291000Y49423943D01*
X-42291000Y50245657D01*
X-42378006Y50683064D01*
X-42625777Y51053880D01*
X-42996593Y51301651D01*
X-43434000Y51388657D01*
X-43871407Y51301651D01*
X-44242223Y51053880D01*
X-44489994Y50683064D01*
X-44577000Y50245657D01*
X-44831000Y50245657D01*
X-44918006Y50683064D01*
X-45165777Y51053880D01*
X-45536593Y51301651D01*
X-45974000Y51388657D01*
X-46411407Y51301651D01*
X-46782223Y51053880D01*
X-47029994Y50683064D01*
X-47117000Y50245657D01*
X-47371000Y50245657D01*
X-47458006Y50683064D01*
X-47705777Y51053880D01*
X-48076593Y51301651D01*
X-48514000Y51388657D01*
X-48951407Y51301651D01*
X-49322223Y51053880D01*
X-49569994Y50683064D01*
X-49657000Y50245657D01*
X-49911000Y50245657D01*
X-49998006Y50683064D01*
X-50245777Y51053880D01*
X-50616593Y51301651D01*
X-51054000Y51388657D01*
X-51491407Y51301651D01*
X-51862223Y51053880D01*
X-52109994Y50683064D01*
X-52197000Y50245657D01*
X-52451000Y50245657D01*
X-52538006Y50683064D01*
X-52785777Y51053880D01*
X-53156593Y51301651D01*
X-53594000Y51388657D01*
X-54031407Y51301651D01*
X-54402223Y51053880D01*
X-54649994Y50683064D01*
X-54737000Y50245657D01*
X-54991000Y50245657D01*
X-55078006Y50683064D01*
X-55325777Y51053880D01*
X-55696593Y51301651D01*
X-56134000Y51388657D01*
X-56571407Y51301651D01*
X-56942223Y51053880D01*
X-57189994Y50683064D01*
X-57277000Y50245657D01*
X-57531000Y50245657D01*
X-57618006Y50683064D01*
X-57865777Y51053880D01*
X-58236593Y51301651D01*
X-58674000Y51388657D01*
X-59111407Y51301651D01*
X-59482223Y51053880D01*
X-59729994Y50683064D01*
X-59817000Y50245657D01*
X-60071000Y50245657D01*
X-60158006Y50683064D01*
X-60405777Y51053880D01*
X-60776593Y51301651D01*
X-61214000Y51388657D01*
X-61651407Y51301651D01*
X-62022223Y51053880D01*
X-62269994Y50683064D01*
X-62357000Y50245657D01*
X-62611000Y50245657D01*
X-62698006Y50683064D01*
X-62945777Y51053880D01*
X-63316593Y51301651D01*
X-63754000Y51388657D01*
X-64191407Y51301651D01*
X-64562223Y51053880D01*
X-64809994Y50683064D01*
X-64897000Y50245657D01*
X-65151000Y50245657D01*
X-65238006Y50683064D01*
X-65485777Y51053880D01*
X-65856593Y51301651D01*
X-66294000Y51388657D01*
X-66731407Y51301651D01*
X-67102223Y51053880D01*
X-67349994Y50683064D01*
X-67437000Y50245657D01*
X-67691000Y50245657D01*
X-67778006Y50683064D01*
X-68025777Y51053880D01*
X-68396593Y51301651D01*
X-68834000Y51388657D01*
X-69271407Y51301651D01*
X-69642223Y51053880D01*
X-69889994Y50683064D01*
X-69977000Y50245657D01*
X-84043707Y50245657D01*
X-82830485Y50746950D01*
X-81750741Y51824811D01*
X-81165667Y53233825D01*
X-81164336Y54759482D01*
X-81746950Y56169515D01*
X-82824811Y57249259D01*
X-84233825Y57834333D01*
X-85759482Y57835664D01*
X-87169515Y57253050D01*
X-88249259Y56175189D01*
X-88834333Y54766175D01*
X-88835664Y53240518D01*
X-89290000Y53240518D01*
X-89290000Y58290000D01*
X-42037000Y58290000D01*
X-42037000Y31115000D01*
G36*
X-10710000Y31877000D02*
X-39878000Y31877000D01*
X-39878000Y39602449D01*
X-19975844Y39602449D01*
X-19864940Y39325218D01*
X-19218988Y39081994D01*
X-18529128Y39104481D01*
X-17996222Y39325218D01*
X-17885318Y39602449D01*
X-14895844Y39602449D01*
X-14784940Y39325218D01*
X-14138988Y39081994D01*
X-13449128Y39104481D01*
X-12916222Y39325218D01*
X-12805318Y39602449D01*
X-13850581Y40647712D01*
X-14895844Y39602449D01*
X-17885318Y39602449D01*
X-18930581Y40647712D01*
X-19975844Y39602449D01*
X-39878000Y39602449D01*
X-39878000Y41115724D01*
X-20675904Y41115724D01*
X-20653417Y40425864D01*
X-20432680Y39892958D01*
X-20155449Y39782054D01*
X-19110186Y40827317D01*
X-18750976Y40827317D01*
X-17705713Y39782054D01*
X-17428482Y39892958D01*
X-17185258Y40538910D01*
X-17204060Y41115724D01*
X-15595904Y41115724D01*
X-15573417Y40425864D01*
X-15352680Y39892958D01*
X-15075449Y39782054D01*
X-14030186Y40827317D01*
X-13670976Y40827317D01*
X-12625713Y39782054D01*
X-12348482Y39892958D01*
X-12105258Y40538910D01*
X-12127745Y41228770D01*
X-12348482Y41761676D01*
X-12625713Y41872580D01*
X-13670976Y40827317D01*
X-14030186Y40827317D01*
X-15075449Y41872580D01*
X-15352680Y41761676D01*
X-15595904Y41115724D01*
X-17204060Y41115724D01*
X-17207745Y41228770D01*
X-17428482Y41761676D01*
X-17705713Y41872580D01*
X-18750976Y40827317D01*
X-19110186Y40827317D01*
X-20155449Y41872580D01*
X-20432680Y41761676D01*
X-20675904Y41115724D01*
X-39878000Y41115724D01*
X-39878000Y42052185D01*
X-19975844Y42052185D01*
X-18930581Y41006922D01*
X-17885318Y42052185D01*
X-17996222Y42329416D01*
X-18642174Y42572640D01*
X-19332034Y42550153D01*
X-19864940Y42329416D01*
X-19975844Y42052185D01*
X-39878000Y42052185D01*
X-39878000Y43043522D01*
X-18025865Y43043522D01*
X-17777475Y42442374D01*
X-17317944Y41982039D01*
X-16717229Y41732601D01*
X-16066786Y41732033D01*
X-15465638Y41980423D01*
X-15393751Y42052185D01*
X-14895844Y42052185D01*
X-13850581Y41006922D01*
X-12805318Y42052185D01*
X-12916222Y42329416D01*
X-13562174Y42572640D01*
X-14252034Y42550153D01*
X-14784940Y42329416D01*
X-14895844Y42052185D01*
X-15393751Y42052185D01*
X-15005303Y42439954D01*
X-14755865Y43040669D01*
X-14755297Y43691112D01*
X-15003687Y44292260D01*
X-15393194Y44682449D01*
X-14895844Y44682449D01*
X-14784940Y44405218D01*
X-14138988Y44161994D01*
X-13449128Y44184481D01*
X-12916222Y44405218D01*
X-12805318Y44682449D01*
X-13850581Y45727712D01*
X-14895844Y44682449D01*
X-15393194Y44682449D01*
X-15463218Y44752595D01*
X-16063933Y45002033D01*
X-16714376Y45002601D01*
X-17315524Y44754211D01*
X-17775859Y44294680D01*
X-18025297Y43693965D01*
X-18025865Y43043522D01*
X-39878000Y43043522D01*
X-39878000Y44682449D01*
X-19975844Y44682449D01*
X-19864940Y44405218D01*
X-19218988Y44161994D01*
X-18529128Y44184481D01*
X-17996222Y44405218D01*
X-17885318Y44682449D01*
X-18930581Y45727712D01*
X-19975844Y44682449D01*
X-39878000Y44682449D01*
X-39878000Y46195724D01*
X-20675904Y46195724D01*
X-20653417Y45505864D01*
X-20432680Y44972958D01*
X-20155449Y44862054D01*
X-19110186Y45907317D01*
X-18750976Y45907317D01*
X-17705713Y44862054D01*
X-17428482Y44972958D01*
X-17185258Y45618910D01*
X-17204060Y46195724D01*
X-15595904Y46195724D01*
X-15573417Y45505864D01*
X-15352680Y44972958D01*
X-15075449Y44862054D01*
X-14030186Y45907317D01*
X-13670976Y45907317D01*
X-12625713Y44862054D01*
X-12348482Y44972958D01*
X-12105258Y45618910D01*
X-12127745Y46308770D01*
X-12348482Y46841676D01*
X-12625713Y46952580D01*
X-13670976Y45907317D01*
X-14030186Y45907317D01*
X-15075449Y46952580D01*
X-15352680Y46841676D01*
X-15595904Y46195724D01*
X-17204060Y46195724D01*
X-17207745Y46308770D01*
X-17428482Y46841676D01*
X-17705713Y46952580D01*
X-18750976Y45907317D01*
X-19110186Y45907317D01*
X-20155449Y46952580D01*
X-20432680Y46841676D01*
X-20675904Y46195724D01*
X-39878000Y46195724D01*
X-39878000Y47132185D01*
X-19975844Y47132185D01*
X-18930581Y46086922D01*
X-17885318Y47132185D01*
X-14895844Y47132185D01*
X-13850581Y46086922D01*
X-12805318Y47132185D01*
X-12916222Y47409416D01*
X-13562174Y47652640D01*
X-14252034Y47630153D01*
X-14784940Y47409416D01*
X-14895844Y47132185D01*
X-17885318Y47132185D01*
X-17996222Y47409416D01*
X-18642174Y47652640D01*
X-19332034Y47630153D01*
X-19864940Y47409416D01*
X-19975844Y47132185D01*
X-39878000Y47132185D01*
X-39878000Y48926681D01*
X-39838006Y48986536D01*
X-39751000Y49423943D01*
X-39751000Y49707800D01*
X-39497000Y49707800D01*
X-39497000Y49326800D01*
X-39361394Y48899060D01*
X-39072421Y48555774D01*
X-38657134Y48351729D01*
X-38481000Y48477778D01*
X-38481000Y49707800D01*
X-38227000Y49707800D01*
X-38227000Y48477778D01*
X-38050866Y48351729D01*
X-37635579Y48555774D01*
X-37346606Y48899060D01*
X-37211000Y49326800D01*
X-37211000Y49707800D01*
X-38227000Y49707800D01*
X-38481000Y49707800D01*
X-39497000Y49707800D01*
X-39751000Y49707800D01*
X-39751000Y50245657D01*
X-39770323Y50342800D01*
X-39497000Y50342800D01*
X-39497000Y49961800D01*
X-38481000Y49961800D01*
X-38481000Y51191822D01*
X-38227000Y51191822D01*
X-38227000Y49961800D01*
X-37211000Y49961800D01*
X-37211000Y50245657D01*
X-36957000Y50245657D01*
X-36957000Y49423943D01*
X-36869994Y48986536D01*
X-36622223Y48615720D01*
X-36251407Y48367949D01*
X-35814000Y48280943D01*
X-35376593Y48367949D01*
X-35005777Y48615720D01*
X-34758006Y48986536D01*
X-34671000Y49423943D01*
X-34671000Y49707800D01*
X-34417000Y49707800D01*
X-34417000Y49326800D01*
X-34281394Y48899060D01*
X-33992421Y48555774D01*
X-33577134Y48351729D01*
X-33401000Y48477778D01*
X-33401000Y49707800D01*
X-33147000Y49707800D01*
X-33147000Y48477778D01*
X-32970866Y48351729D01*
X-32555579Y48555774D01*
X-32266606Y48899060D01*
X-32131000Y49326800D01*
X-32131000Y49707800D01*
X-33147000Y49707800D01*
X-33401000Y49707800D01*
X-34417000Y49707800D01*
X-34671000Y49707800D01*
X-34671000Y50245657D01*
X-34690323Y50342800D01*
X-34417000Y50342800D01*
X-34417000Y49961800D01*
X-33401000Y49961800D01*
X-33401000Y51191822D01*
X-33147000Y51191822D01*
X-33147000Y49961800D01*
X-32131000Y49961800D01*
X-32131000Y50342800D01*
X-32266606Y50770540D01*
X-32555579Y51113826D01*
X-32970866Y51317871D01*
X-33147000Y51191822D01*
X-33401000Y51191822D01*
X-33577134Y51317871D01*
X-33992421Y51113826D01*
X-34281394Y50770540D01*
X-34417000Y50342800D01*
X-34690323Y50342800D01*
X-34758006Y50683064D01*
X-35005777Y51053880D01*
X-35376593Y51301651D01*
X-35814000Y51388657D01*
X-36251407Y51301651D01*
X-36622223Y51053880D01*
X-36869994Y50683064D01*
X-36957000Y50245657D01*
X-37211000Y50245657D01*
X-37211000Y50342800D01*
X-37346606Y50770540D01*
X-37635579Y51113826D01*
X-38050866Y51317871D01*
X-38227000Y51191822D01*
X-38481000Y51191822D01*
X-38657134Y51317871D01*
X-39072421Y51113826D01*
X-39361394Y50770540D01*
X-39497000Y50342800D01*
X-39770323Y50342800D01*
X-39838006Y50683064D01*
X-39878000Y50742919D01*
X-39878000Y53240518D01*
X-18835664Y53240518D01*
X-18253050Y51830485D01*
X-17175189Y50750741D01*
X-15766175Y50165667D01*
X-14240518Y50164336D01*
X-12830485Y50746950D01*
X-11750741Y51824811D01*
X-11165667Y53233825D01*
X-11164336Y54759482D01*
X-11746950Y56169515D01*
X-12824811Y57249259D01*
X-14233825Y57834333D01*
X-15759482Y57835664D01*
X-17169515Y57253050D01*
X-18249259Y56175189D01*
X-18834333Y54766175D01*
X-18835664Y53240518D01*
X-39878000Y53240518D01*
X-39878000Y58290000D01*
X-10710000Y58290000D01*
X-10710000Y31877000D01*
X-10710000Y31877000D01*
G37*
X-10710000Y31877000D02*
X-39878000Y31877000D01*
X-39878000Y39602449D01*
X-19975844Y39602449D01*
X-19864940Y39325218D01*
X-19218988Y39081994D01*
X-18529128Y39104481D01*
X-17996222Y39325218D01*
X-17885318Y39602449D01*
X-14895844Y39602449D01*
X-14784940Y39325218D01*
X-14138988Y39081994D01*
X-13449128Y39104481D01*
X-12916222Y39325218D01*
X-12805318Y39602449D01*
X-13850581Y40647712D01*
X-14895844Y39602449D01*
X-17885318Y39602449D01*
X-18930581Y40647712D01*
X-19975844Y39602449D01*
X-39878000Y39602449D01*
X-39878000Y41115724D01*
X-20675904Y41115724D01*
X-20653417Y40425864D01*
X-20432680Y39892958D01*
X-20155449Y39782054D01*
X-19110186Y40827317D01*
X-18750976Y40827317D01*
X-17705713Y39782054D01*
X-17428482Y39892958D01*
X-17185258Y40538910D01*
X-17204060Y41115724D01*
X-15595904Y41115724D01*
X-15573417Y40425864D01*
X-15352680Y39892958D01*
X-15075449Y39782054D01*
X-14030186Y40827317D01*
X-13670976Y40827317D01*
X-12625713Y39782054D01*
X-12348482Y39892958D01*
X-12105258Y40538910D01*
X-12127745Y41228770D01*
X-12348482Y41761676D01*
X-12625713Y41872580D01*
X-13670976Y40827317D01*
X-14030186Y40827317D01*
X-15075449Y41872580D01*
X-15352680Y41761676D01*
X-15595904Y41115724D01*
X-17204060Y41115724D01*
X-17207745Y41228770D01*
X-17428482Y41761676D01*
X-17705713Y41872580D01*
X-18750976Y40827317D01*
X-19110186Y40827317D01*
X-20155449Y41872580D01*
X-20432680Y41761676D01*
X-20675904Y41115724D01*
X-39878000Y41115724D01*
X-39878000Y42052185D01*
X-19975844Y42052185D01*
X-18930581Y41006922D01*
X-17885318Y42052185D01*
X-17996222Y42329416D01*
X-18642174Y42572640D01*
X-19332034Y42550153D01*
X-19864940Y42329416D01*
X-19975844Y42052185D01*
X-39878000Y42052185D01*
X-39878000Y43043522D01*
X-18025865Y43043522D01*
X-17777475Y42442374D01*
X-17317944Y41982039D01*
X-16717229Y41732601D01*
X-16066786Y41732033D01*
X-15465638Y41980423D01*
X-15393751Y42052185D01*
X-14895844Y42052185D01*
X-13850581Y41006922D01*
X-12805318Y42052185D01*
X-12916222Y42329416D01*
X-13562174Y42572640D01*
X-14252034Y42550153D01*
X-14784940Y42329416D01*
X-14895844Y42052185D01*
X-15393751Y42052185D01*
X-15005303Y42439954D01*
X-14755865Y43040669D01*
X-14755297Y43691112D01*
X-15003687Y44292260D01*
X-15393194Y44682449D01*
X-14895844Y44682449D01*
X-14784940Y44405218D01*
X-14138988Y44161994D01*
X-13449128Y44184481D01*
X-12916222Y44405218D01*
X-12805318Y44682449D01*
X-13850581Y45727712D01*
X-14895844Y44682449D01*
X-15393194Y44682449D01*
X-15463218Y44752595D01*
X-16063933Y45002033D01*
X-16714376Y45002601D01*
X-17315524Y44754211D01*
X-17775859Y44294680D01*
X-18025297Y43693965D01*
X-18025865Y43043522D01*
X-39878000Y43043522D01*
X-39878000Y44682449D01*
X-19975844Y44682449D01*
X-19864940Y44405218D01*
X-19218988Y44161994D01*
X-18529128Y44184481D01*
X-17996222Y44405218D01*
X-17885318Y44682449D01*
X-18930581Y45727712D01*
X-19975844Y44682449D01*
X-39878000Y44682449D01*
X-39878000Y46195724D01*
X-20675904Y46195724D01*
X-20653417Y45505864D01*
X-20432680Y44972958D01*
X-20155449Y44862054D01*
X-19110186Y45907317D01*
X-18750976Y45907317D01*
X-17705713Y44862054D01*
X-17428482Y44972958D01*
X-17185258Y45618910D01*
X-17204060Y46195724D01*
X-15595904Y46195724D01*
X-15573417Y45505864D01*
X-15352680Y44972958D01*
X-15075449Y44862054D01*
X-14030186Y45907317D01*
X-13670976Y45907317D01*
X-12625713Y44862054D01*
X-12348482Y44972958D01*
X-12105258Y45618910D01*
X-12127745Y46308770D01*
X-12348482Y46841676D01*
X-12625713Y46952580D01*
X-13670976Y45907317D01*
X-14030186Y45907317D01*
X-15075449Y46952580D01*
X-15352680Y46841676D01*
X-15595904Y46195724D01*
X-17204060Y46195724D01*
X-17207745Y46308770D01*
X-17428482Y46841676D01*
X-17705713Y46952580D01*
X-18750976Y45907317D01*
X-19110186Y45907317D01*
X-20155449Y46952580D01*
X-20432680Y46841676D01*
X-20675904Y46195724D01*
X-39878000Y46195724D01*
X-39878000Y47132185D01*
X-19975844Y47132185D01*
X-18930581Y46086922D01*
X-17885318Y47132185D01*
X-14895844Y47132185D01*
X-13850581Y46086922D01*
X-12805318Y47132185D01*
X-12916222Y47409416D01*
X-13562174Y47652640D01*
X-14252034Y47630153D01*
X-14784940Y47409416D01*
X-14895844Y47132185D01*
X-17885318Y47132185D01*
X-17996222Y47409416D01*
X-18642174Y47652640D01*
X-19332034Y47630153D01*
X-19864940Y47409416D01*
X-19975844Y47132185D01*
X-39878000Y47132185D01*
X-39878000Y48926681D01*
X-39838006Y48986536D01*
X-39751000Y49423943D01*
X-39751000Y49707800D01*
X-39497000Y49707800D01*
X-39497000Y49326800D01*
X-39361394Y48899060D01*
X-39072421Y48555774D01*
X-38657134Y48351729D01*
X-38481000Y48477778D01*
X-38481000Y49707800D01*
X-38227000Y49707800D01*
X-38227000Y48477778D01*
X-38050866Y48351729D01*
X-37635579Y48555774D01*
X-37346606Y48899060D01*
X-37211000Y49326800D01*
X-37211000Y49707800D01*
X-38227000Y49707800D01*
X-38481000Y49707800D01*
X-39497000Y49707800D01*
X-39751000Y49707800D01*
X-39751000Y50245657D01*
X-39770323Y50342800D01*
X-39497000Y50342800D01*
X-39497000Y49961800D01*
X-38481000Y49961800D01*
X-38481000Y51191822D01*
X-38227000Y51191822D01*
X-38227000Y49961800D01*
X-37211000Y49961800D01*
X-37211000Y50245657D01*
X-36957000Y50245657D01*
X-36957000Y49423943D01*
X-36869994Y48986536D01*
X-36622223Y48615720D01*
X-36251407Y48367949D01*
X-35814000Y48280943D01*
X-35376593Y48367949D01*
X-35005777Y48615720D01*
X-34758006Y48986536D01*
X-34671000Y49423943D01*
X-34671000Y49707800D01*
X-34417000Y49707800D01*
X-34417000Y49326800D01*
X-34281394Y48899060D01*
X-33992421Y48555774D01*
X-33577134Y48351729D01*
X-33401000Y48477778D01*
X-33401000Y49707800D01*
X-33147000Y49707800D01*
X-33147000Y48477778D01*
X-32970866Y48351729D01*
X-32555579Y48555774D01*
X-32266606Y48899060D01*
X-32131000Y49326800D01*
X-32131000Y49707800D01*
X-33147000Y49707800D01*
X-33401000Y49707800D01*
X-34417000Y49707800D01*
X-34671000Y49707800D01*
X-34671000Y50245657D01*
X-34690323Y50342800D01*
X-34417000Y50342800D01*
X-34417000Y49961800D01*
X-33401000Y49961800D01*
X-33401000Y51191822D01*
X-33147000Y51191822D01*
X-33147000Y49961800D01*
X-32131000Y49961800D01*
X-32131000Y50342800D01*
X-32266606Y50770540D01*
X-32555579Y51113826D01*
X-32970866Y51317871D01*
X-33147000Y51191822D01*
X-33401000Y51191822D01*
X-33577134Y51317871D01*
X-33992421Y51113826D01*
X-34281394Y50770540D01*
X-34417000Y50342800D01*
X-34690323Y50342800D01*
X-34758006Y50683064D01*
X-35005777Y51053880D01*
X-35376593Y51301651D01*
X-35814000Y51388657D01*
X-36251407Y51301651D01*
X-36622223Y51053880D01*
X-36869994Y50683064D01*
X-36957000Y50245657D01*
X-37211000Y50245657D01*
X-37211000Y50342800D01*
X-37346606Y50770540D01*
X-37635579Y51113826D01*
X-38050866Y51317871D01*
X-38227000Y51191822D01*
X-38481000Y51191822D01*
X-38657134Y51317871D01*
X-39072421Y51113826D01*
X-39361394Y50770540D01*
X-39497000Y50342800D01*
X-39770323Y50342800D01*
X-39838006Y50683064D01*
X-39878000Y50742919D01*
X-39878000Y53240518D01*
X-18835664Y53240518D01*
X-18253050Y51830485D01*
X-17175189Y50750741D01*
X-15766175Y50165667D01*
X-14240518Y50164336D01*
X-12830485Y50746950D01*
X-11750741Y51824811D01*
X-11165667Y53233825D01*
X-11164336Y54759482D01*
X-11746950Y56169515D01*
X-12824811Y57249259D01*
X-14233825Y57834333D01*
X-15759482Y57835664D01*
X-17169515Y57253050D01*
X-18249259Y56175189D01*
X-18834333Y54766175D01*
X-18835664Y53240518D01*
X-39878000Y53240518D01*
X-39878000Y58290000D01*
X-10710000Y58290000D01*
X-10710000Y31877000D01*
M02*
