G04 #@! TF.FileFunction,Profile,NP*
%FSLAX46Y46*%
G04 Gerber Fmt 4.6, Leading zero omitted, Abs format (unit mm)*
G04 Created by KiCad (PCBNEW 4.0.6) date 06/12/18 18:52:47*
%MOMM*%
%LPD*%
G01*
G04 APERTURE LIST*
%ADD10C,0.100000*%
%ADD11C,0.150000*%
G04 APERTURE END LIST*
D10*
D11*
X-10000000Y59000000D02*
X-10000000Y7000000D01*
X-90000000Y59000000D02*
X-90000000Y7000000D01*
X-90000000Y7000000D02*
X-10000000Y7000000D01*
X-90000000Y59000000D02*
X-10000000Y59000000D01*
M02*
