(module 5-104361-3 (layer F.Cu) (tedit 53C1B108)
  (fp_text reference 5-104361-3 (at 0 -2.8) (layer F.SilkS)
    (effects (font (size 1 1) (thickness 0.15)))
  )
  (fp_text value VAL** (at 0 -5.08) (layer F.SilkS) hide
    (effects (font (size 1 1) (thickness 0.15)))
  )
  (fp_line (start -6.35 0.9398) (end -6.35 -6.604) (layer F.SilkS) (width 0.1524))
  (fp_line (start -6.35 -12.6492) (end -6.35 -10.668) (layer F.SilkS) (width 0.1524))
  (fp_line (start 6.35 -12.6492) (end 6.35 -10.668) (layer F.SilkS) (width 0.1524))
  (fp_line (start 5.08 0.9398) (end 6.35 0.9398) (layer F.SilkS) (width 0.1524))
  (fp_line (start 3.8081 -11.6486) (end 3.2081 -12.6486) (layer F.SilkS) (width 0.15))
  (fp_line (start 3.8081 -11.6486) (end 4.4081 -12.6486) (layer F.SilkS) (width 0.15))
  (fp_line (start -6.35 0.9398) (end -5.08 0.9398) (layer F.SilkS) (width 0.1524))
  (fp_line (start -6.35 -12.6492) (end 6.35 -12.6492) (layer F.SilkS) (width 0.1524))
  (fp_line (start 6.35 0.9398) (end 6.35 -6.604) (layer F.SilkS) (width 0.1524))
  (pad 0 thru_hole circle (at 5.2832 -8.636) (size 3.81 3.81) (drill 2.4384) (layers *.Cu *.Mask F.SilkS))
  (pad 1 thru_hole rect (at 3.81 0) (size 1.778 2.286) (drill 0.9144) (layers *.Cu *.Mask F.SilkS))
  (pad 2 thru_hole rect (at 1.27 0) (size 1.778 2.286) (drill 0.9144) (layers *.Cu *.Mask F.SilkS))
  (pad 4 thru_hole rect (at -3.81 0) (size 1.778 2.286) (drill 0.9144) (layers *.Cu *.Mask F.SilkS))
  (pad 3 thru_hole rect (at -1.27 0) (size 1.778 2.286) (drill 0.9144) (layers *.Cu *.Mask F.SilkS))
  (pad 0 thru_hole circle (at -5.2832 -8.636) (size 3.81 3.81) (drill 2.4384) (layers *.Cu *.Mask F.SilkS))
)
