(module Resonator_SMD (layer F.Cu) (tedit 52F49913)
  (fp_text reference X1 (at 0.254 -2.032) (layer F.SilkS) hide
    (effects (font (size 1 1) (thickness 0.15)))
  )
  (fp_text value RESONATOR (at 0 2.032) (layer F.SilkS)
    (effects (font (size 1 1) (thickness 0.15)))
  )
  (fp_line (start 1.6 -0.65) (end -1.6 -0.65) (layer F.SilkS) (width 0.15))
  (fp_line (start -1.6 0.65) (end 1.6 0.65) (layer F.SilkS) (width 0.15))
  (fp_line (start -1.6 -0.65) (end -1.6 0.65) (layer F.SilkS) (width 0.15))
  (fp_line (start 1.6 0.65) (end 1.6 -0.65) (layer F.SilkS) (width 0.15))
  (pad 1 smd rect (at -1.2 0) (size 0.4 2) (layers F.Cu F.Paste F.Mask))
  (pad 2 smd rect (at 0 0) (size 0.4 2) (layers F.Cu F.Paste F.Mask))
  (pad 3 smd rect (at 1.2 0) (size 0.4 2) (layers F.Cu F.Paste F.Mask))
)
