(export (version D)
  (design
    (source C:/Users/USER/Desktop/HGintern/Assignment1/NS-HP-GL/NS-HP-GL.sch)
    (date "12/06/61 13:13:32")
    (tool "Eeschema 4.0.7")
    (sheet (number 1) (name /) (tstamps /)
      (title_block
        (title)
        (company)
        (rev)
        (date)
        (source NS-HP-GL.sch)
        (comment (number 1) (value ""))
        (comment (number 2) (value ""))
        (comment (number 3) (value ""))
        (comment (number 4) (value "")))))
  (components
    (comp (ref J1)
      (value Conn_01x06)
      (footprint Connectors_Molex:Molex_PicoBlade_53261-0671_06x1.25mm_Angled)
      (fields
        (field (name partno) 53261-0671))
      (libsource (lib conn) (part Conn_01x06))
      (sheetpath (names /) (tstamps /))
      (tstamp 5B06C1A2))
    (comp (ref P1)
      (value U.FL)
      (footprint HG_Devices:U.FL)
      (fields
        (field (name partno) "U.FL-R-SMT(10)"))
      (libsource (lib HG_device) (part BNC))
      (sheetpath (names /) (tstamps /))
      (tstamp 5B078A1A))
    (comp (ref P2)
      (value RPSMA_Female)
      (footprint HG_Devices:RPSMA_THT_Female_RA)
      (fields
        (field (name partno) CONREVSMA002-G))
      (libsource (lib HG_device) (part BNC))
      (sheetpath (names /) (tstamps /))
      (tstamp 5B078B69))
    (comp (ref U11)
      (value NSHPGL)
      (footprint HG_Devices:NS-HP-GL)
      (fields
        (field (name partno) M1545R01))
      (libsource (lib NSHPGL) (part NSHPGL))
      (sheetpath (names /) (tstamps /))
      (tstamp 5B07C76F))
    (comp (ref U1)
      (value LD1117S33TR_SOT223)
      (footprint TO_SOT_Packages_SMD:SOT-223-3_TabPin2)
      (fields
        (field (name partno) LD1117S33TR))
      (libsource (lib regul) (part LD1117S33TR_SOT223))
      (sheetpath (names /) (tstamps /))
      (tstamp 5B0B84A6))
    (comp (ref C1)
      (value 100nF)
      (footprint Capacitors_SMD:C_0603)
      (fields
        (field (name partno) MC0603F104Z250CT))
      (libsource (lib device) (part C))
      (sheetpath (names /) (tstamps /))
      (tstamp 5B0BAB5F))
    (comp (ref C2)
      (value 10uF)
      (footprint Capacitors_SMD:C_1206)
      (fields
        (field (name partno) GRM21BR61H106KE43L))
      (libsource (lib device) (part C))
      (sheetpath (names /) (tstamps /))
      (tstamp 5B0BAE12))
    (comp (ref J2)
      (value Conn_01x06)
      (footprint Connectors_Molex:Molex_PicoBlade_53261-0671_06x1.25mm_Angled)
      (libsource (lib conn) (part Conn_01x06))
      (sheetpath (names /) (tstamps /))
      (tstamp 5B16141F))
    (comp (ref X1)
      (value MINI-USB-SHIELD-32005-201)
      (footprint Connectors_USB:USB_Micro-B_Molex_47346-0001)
      (fields
        (field (name partno) -))
      (libsource (lib HG_device) (part MINI-USB-SHIELD-32005-201))
      (sheetpath (names /) (tstamps /))
      (tstamp 5B1627C4))
    (comp (ref R1)
      (value 0k)
      (footprint Capacitors_SMD:C_0805)
      (fields
        (field (name partno) -))
      (libsource (lib device) (part R))
      (sheetpath (names /) (tstamps /))
      (tstamp 5B1F9CC4)))
  (libparts
    (libpart (lib regul) (part AP1117-15)
      (aliases
        (alias AP1117-18)
        (alias AP1117-25)
        (alias AP1117-33)
        (alias AP1117-50)
        (alias LD1117S33TR_SOT223)
        (alias LD1117S12TR_SOT223)
        (alias LD1117S18TR_SOT223)
        (alias LD1117S25TR_SOT223)
        (alias LD1117S50TR_SOT223)
        (alias NCP1117-12_SOT223)
        (alias NCP1117-1.5_SOT223)
        (alias NCP1117-1.8_SOT223)
        (alias NCP1117-2.0_SOT223)
        (alias NCP1117-2.5_SOT223)
        (alias NCP1117-2.85_SOT223)
        (alias NCP1117-3.3_SOT223)
        (alias NCP1117-5.0_SOT223))
      (description "1A Low Dropout regulator, positive, 1.5V fixed output, SOT-223")
      (docs http://www.diodes.com/datasheets/AP1117.pdf)
      (footprints
        (fp SOT?223*TabPin2*))
      (fields
        (field (name Reference) U)
        (field (name Value) AP1117-15)
        (field (name Footprint) TO_SOT_Packages_SMD:SOT-223-3Lead_TabPin2))
      (pins
        (pin (num 1) (name GND) (type power_in))
        (pin (num 2) (name VO) (type passive))
        (pin (num 3) (name VI) (type power_in))))
    (libpart (lib HG_device) (part BNC)
      (fields
        (field (name Reference) P)
        (field (name Value) BNC))
      (pins
        (pin (num 1) (name In) (type passive))
        (pin (num 2) (name Ext) (type passive))))
    (libpart (lib device) (part C)
      (description "Unpolarized capacitor")
      (footprints
        (fp C_*))
      (fields
        (field (name Reference) C)
        (field (name Value) C))
      (pins
        (pin (num 1) (name ~) (type passive))
        (pin (num 2) (name ~) (type passive))))
    (libpart (lib conn) (part Conn_01x06)
      (description "Generic connector, single row, 01x06")
      (docs ~)
      (footprints
        (fp Connector*:*_??x*mm*)
        (fp Connector*:*1x??x*mm*)
        (fp Pin?Header?Straight?1X*)
        (fp Pin?Header?Angled?1X*)
        (fp Socket?Strip?Straight?1X*)
        (fp Socket?Strip?Angled?1X*))
      (fields
        (field (name Reference) J)
        (field (name Value) Conn_01x06))
      (pins
        (pin (num 1) (name Pin_1) (type passive))
        (pin (num 2) (name Pin_2) (type passive))
        (pin (num 3) (name Pin_3) (type passive))
        (pin (num 4) (name Pin_4) (type passive))
        (pin (num 5) (name Pin_5) (type passive))
        (pin (num 6) (name Pin_6) (type passive))))
    (libpart (lib HG_device) (part MINI-USB-SHIELD-32005-201)
      (fields
        (field (name Reference) X)
        (field (name Value) MINI-USB-SHIELD-32005-201)
        (field (name Footprint) con-cypressindustries-32005-201))
      (pins
        (pin (num 1) (name 1) (type passive))
        (pin (num 2) (name 2) (type passive))
        (pin (num 3) (name 3) (type passive))
        (pin (num 4) (name 4) (type passive))
        (pin (num 5) (name 5) (type passive))
        (pin (num M1) (name S1) (type passive))
        (pin (num M2) (name S2) (type passive))
        (pin (num M3) (name S3) (type passive))
        (pin (num M4) (name S4) (type passive))))
    (libpart (lib NSHPGL) (part NSHPGL)
      (description NS-HP-GL)
      (docs http://navspark.mybigcommerce.com/content/NS-HP-GL-User-Guide.pdf)
      (fields
        (field (name Reference) U1)
        (field (name Value) NSHPGL))
      (pins
        (pin (num 1) (name RFGND) (type input))
        (pin (num 2) (name RFGND) (type input))
        (pin (num 3) (name RFVCC33) (type input))
        (pin (num 4) (name RFV33) (type input))
        (pin (num 5) (name VBAT) (type input))
        (pin (num 6) (name RSTN1) (type input))
        (pin (num 7) (name TX3) (type input))
        (pin (num 8) (name NC) (type input))
        (pin (num 9) (name VCC33) (type input))
        (pin (num 10) (name NC) (type input))
        (pin (num 11) (name RSTN2) (type input))
        (pin (num 12) (name BOOT_SEL2) (type input))
        (pin (num 13) (name 1PPS) (type input))
        (pin (num 14) (name GND) (type input))
        (pin (num 15) (name VCC33) (type input))
        (pin (num 16) (name GND) (type input))
        (pin (num 17) (name BOOT_SEL1) (type input))
        (pin (num 18) (name RX1) (type input))
        (pin (num 19) (name TX1) (type input))
        (pin (num 20) (name TX2) (type input))
        (pin (num 21) (name RX2) (type input))
        (pin (num 22) (name NC) (type input))
        (pin (num 23) (name TRIG*) (type input))
        (pin (num 24) (name STS) (type input))
        (pin (num 25) (name RFGND) (type input))
        (pin (num 26) (name RFGND) (type input))
        (pin (num 27) (name NC) (type input))
        (pin (num 28) (name NC) (type input))
        (pin (num 29) (name NC) (type input))))
    (libpart (lib device) (part R)
      (description Resistor)
      (footprints
        (fp R_*)
        (fp R_*))
      (fields
        (field (name Reference) R)
        (field (name Value) R))
      (pins
        (pin (num 1) (name ~) (type passive))
        (pin (num 2) (name ~) (type passive)))))
  (libraries
    (library (logical device)
      (uri "C:\\Program Files\\KiCad\\share\\kicad\\library\\device.lib"))
    (library (logical NSHPGL)
      (uri C:\Users\USER\Desktop\HGintern\Assignment1\NS-HP-GL\NSHPGL.lib))
    (library (logical conn)
      (uri "C:\\Program Files\\KiCad\\share\\kicad\\library\\conn.lib"))
    (library (logical HG_device)
      (uri C:\Users\USER\Desktop\HGintern\libarary\hg-pcb-library\HG_device.lib))
    (library (logical regul)
      (uri "C:\\Program Files\\KiCad\\share\\kicad\\library\\regul.lib")))
  (nets
    (net (code 1) (name /TX_NSHPGL)
      (node (ref U11) (pin 19))
      (node (ref J2) (pin 2))
      (node (ref J1) (pin 3)))
    (net (code 2) (name "Net-(P1-Pad1)")
      (node (ref P2) (pin 1))
      (node (ref P1) (pin 1)))
    (net (code 3) (name /RX_NSHPGL)
      (node (ref J1) (pin 2))
      (node (ref U11) (pin 18)))
    (net (code 4) (name /5V)
      (node (ref J1) (pin 1))
      (node (ref U1) (pin 3))
      (node (ref C1) (pin 1))
      (node (ref X1) (pin 1))
      (node (ref J2) (pin 1)))
    (net (code 5) (name "Net-(J2-Pad3)")
      (node (ref U11) (pin 21))
      (node (ref J2) (pin 3)))
    (net (code 6) (name "Net-(J2-Pad4)")
      (node (ref J2) (pin 4)))
    (net (code 7) (name "Net-(J2-Pad5)")
      (node (ref J2) (pin 5)))
    (net (code 8) (name GND)
      (node (ref J2) (pin 6))
      (node (ref U11) (pin 25))
      (node (ref J1) (pin 6))
      (node (ref U11) (pin 16))
      (node (ref U1) (pin 1))
      (node (ref C2) (pin 2))
      (node (ref C1) (pin 2))
      (node (ref R1) (pin 1))
      (node (ref X1) (pin 5)))
    (net (code 9) (name "Net-(X1-Pad2)")
      (node (ref X1) (pin 2)))
    (net (code 10) (name "Net-(X1-Pad3)")
      (node (ref X1) (pin 3)))
    (net (code 11) (name "Net-(X1-Pad4)")
      (node (ref X1) (pin 4)))
    (net (code 12) (name GND_a)
      (node (ref P1) (pin 2))
      (node (ref P2) (pin 2))
      (node (ref R1) (pin 2))
      (node (ref U11) (pin 2))
      (node (ref U11) (pin 1)))
    (net (code 13) (name "Net-(U11-Pad10)")
      (node (ref U11) (pin 10)))
    (net (code 14) (name "Net-(U11-Pad5)")
      (node (ref U11) (pin 5)))
    (net (code 15) (name "Net-(U11-Pad6)")
      (node (ref U11) (pin 6)))
    (net (code 16) (name "Net-(U11-Pad7)")
      (node (ref U11) (pin 7)))
    (net (code 17) (name "Net-(U11-Pad8)")
      (node (ref U11) (pin 8)))
    (net (code 18) (name "Net-(U11-Pad9)")
      (node (ref U11) (pin 9)))
    (net (code 19) (name "Net-(U11-Pad20)")
      (node (ref U11) (pin 20)))
    (net (code 20) (name "Net-(U11-Pad11)")
      (node (ref U11) (pin 11)))
    (net (code 21) (name "Net-(U11-Pad12)")
      (node (ref U11) (pin 12)))
    (net (code 22) (name "Net-(U11-Pad22)")
      (node (ref U11) (pin 22)))
    (net (code 23) (name "Net-(U11-Pad13)")
      (node (ref U11) (pin 13)))
    (net (code 24) (name "Net-(U11-Pad23)")
      (node (ref U11) (pin 23)))
    (net (code 25) (name "Net-(U11-Pad14)")
      (node (ref U11) (pin 14)))
    (net (code 26) (name "Net-(J1-Pad5)")
      (node (ref J1) (pin 5)))
    (net (code 27) (name "Net-(J1-Pad4)")
      (node (ref J1) (pin 4)))
    (net (code 28) (name +3V3)
      (node (ref U11) (pin 15))
      (node (ref U11) (pin 3))
      (node (ref U11) (pin 4))
      (node (ref U1) (pin 2))
      (node (ref C2) (pin 1)))
    (net (code 29) (name "Net-(U11-Pad29)")
      (node (ref U11) (pin 29)))
    (net (code 30) (name "Net-(U11-Pad28)")
      (node (ref U11) (pin 28)))
    (net (code 31) (name "Net-(U11-Pad27)")
      (node (ref U11) (pin 27)))
    (net (code 32) (name "Net-(U11-Pad17)")
      (node (ref U11) (pin 17)))
    (net (code 33) (name "Net-(U11-Pad26)")
      (node (ref U11) (pin 26)))
    (net (code 34) (name "Net-(U11-Pad24)")
      (node (ref U11) (pin 24)))))