(module NS-HP-GL (layer F.Cu) (tedit 5B07ACFE)
  (fp_text reference U1 (at 31.75 -3.81 90) (layer F.SilkS)
    (effects (font (size 1 1) (thickness 0.15)))
  )
  (fp_text value NS-HP-GL (at 16.51 -5.08) (layer F.Fab)
    (effects (font (size 1 1) (thickness 0.15)))
  )
  (fp_line (start 36.83 -6.35) (end 6.35 -6.35) (layer F.SilkS) (width 0.15))
  (fp_line (start 36.83 17.78) (end 36.83 -6.35) (layer F.SilkS) (width 0.15))
  (fp_line (start 6.35 17.78) (end 36.83 17.78) (layer F.SilkS) (width 0.15))
  (fp_line (start 6.35 -6.35) (end 6.35 17.78) (layer F.SilkS) (width 0.15))
  (fp_text user 15 (at 34.29 16.51) (layer F.SilkS)
    (effects (font (size 1 1) (thickness 0.15)))
  )
  (fp_text user 14 (at 8.89 16.51) (layer F.SilkS)
    (effects (font (size 1 1) (thickness 0.15)))
  )
  (fp_line (start 35.56 -5.08) (end 33.02 -5.08) (layer F.SilkS) (width 0.15))
  (fp_line (start 35.56 15.24) (end 35.56 -5.08) (layer F.SilkS) (width 0.15))
  (fp_line (start 33.02 15.24) (end 35.56 15.24) (layer F.SilkS) (width 0.15))
  (fp_line (start 33.02 -5.08) (end 33.02 15.24) (layer F.SilkS) (width 0.15))
  (fp_line (start 10.16 -5.08) (end 7.62 -5.08) (layer F.SilkS) (width 0.15))
  (fp_line (start 10.16 15.24) (end 10.16 -5.08) (layer F.SilkS) (width 0.15))
  (fp_line (start 7.62 15.24) (end 10.16 15.24) (layer F.SilkS) (width 0.15))
  (fp_line (start 7.62 -5.08) (end 7.62 15.24) (layer F.SilkS) (width 0.15))
  (pad 1 thru_hole rect (at 8.89 -3.81) (size 1.778 1.016) (drill 0.762) (layers *.Cu *.Mask))
  (pad 2 thru_hole oval (at 8.89 -2.54) (size 1.778 1.016) (drill 0.762) (layers *.Cu *.Mask))
  (pad 3 thru_hole oval (at 8.89 -1.27) (size 1.778 1.016) (drill 0.762) (layers *.Cu *.Mask))
  (pad 4 thru_hole oval (at 8.89 0) (size 1.778 1.016) (drill 0.762) (layers *.Cu *.Mask))
  (pad 5 thru_hole oval (at 8.89 1.27) (size 1.778 1.016) (drill 0.762) (layers *.Cu *.Mask))
  (pad 6 thru_hole oval (at 8.89 2.54) (size 1.778 1.016) (drill 0.762) (layers *.Cu *.Mask))
  (pad 7 thru_hole oval (at 8.89 3.81) (size 1.778 1.016) (drill 0.762) (layers *.Cu *.Mask))
  (pad 8 thru_hole oval (at 8.89 5.08) (size 1.778 1.016) (drill 0.762) (layers *.Cu *.Mask))
  (pad 9 thru_hole oval (at 8.89 6.35) (size 1.778 1.016) (drill 0.762) (layers *.Cu *.Mask))
  (pad 10 thru_hole oval (at 8.89 7.62) (size 1.778 1.016) (drill 0.762) (layers *.Cu *.Mask))
  (pad 11 thru_hole oval (at 8.89 8.89) (size 1.778 1.016) (drill 0.762) (layers *.Cu *.Mask))
  (pad 12 thru_hole oval (at 8.89 10.16) (size 1.778 1.016) (drill 0.762) (layers *.Cu *.Mask))
  (pad 13 thru_hole oval (at 8.89 11.43) (size 1.778 1.016) (drill 0.762) (layers *.Cu *.Mask))
  (pad 14 thru_hole oval (at 8.89 13.97) (size 1.778 1.016) (drill 0.762) (layers *.Cu *.Mask))
  (pad 15 thru_hole oval (at 34.29 13.97) (size 1.778 1.016) (drill 0.762) (layers *.Cu *.Mask))
  (pad 16 thru_hole oval (at 34.29 12.7) (size 1.778 1.016) (drill 0.762) (layers *.Cu *.Mask))
  (pad 17 thru_hole oval (at 34.29 11.43) (size 1.778 1.016) (drill 0.762) (layers *.Cu *.Mask))
  (pad 29 thru_hole oval (at 34.29 -3.81) (size 1.778 1.016) (drill 0.762) (layers *.Cu *.Mask))
  (pad 18 thru_hole oval (at 34.29 10.16) (size 1.778 1.016) (drill 0.762) (layers *.Cu *.Mask))
  (pad 19 thru_hole oval (at 34.29 8.89) (size 1.778 1.016) (drill 0.762) (layers *.Cu *.Mask))
  (pad 20 thru_hole oval (at 34.29 7.62) (size 1.778 1.016) (drill 0.762) (layers *.Cu *.Mask))
  (pad 21 thru_hole oval (at 34.29 6.35) (size 1.778 1.016) (drill 0.762) (layers *.Cu *.Mask))
  (pad 22 thru_hole oval (at 34.29 5.08) (size 1.778 1.016) (drill 0.762) (layers *.Cu *.Mask))
  (pad 23 thru_hole oval (at 34.29 3.81) (size 1.778 1.016) (drill 0.762) (layers *.Cu *.Mask))
  (pad 24 thru_hole oval (at 34.29 2.54) (size 1.778 1.016) (drill 0.762) (layers *.Cu *.Mask))
  (pad 25 thru_hole oval (at 34.29 1.27) (size 1.778 1.016) (drill 0.762) (layers *.Cu *.Mask))
  (pad 26 thru_hole oval (at 34.29 0) (size 1.778 1.016) (drill 0.762) (layers *.Cu *.Mask))
  (pad 27 thru_hole oval (at 34.29 -1.27) (size 1.778 1.016) (drill 0.762) (layers *.Cu *.Mask))
  (pad 28 thru_hole oval (at 34.29 -2.54) (size 1.778 1.016) (drill 0.762) (layers *.Cu *.Mask))
)
